{
"type": "FeatureCollection",
"name": "enter_room_all_1",
"crs": { "type": "name", "properties": { "name": "urn:ogc:def:crs:OGC:1.3:CRS84" } },
"features": [
{ "type": "Feature", "properties": { "id": 0, "name": "42", "type": "enter", "building": "old building", "floor": 2, "n_stairs": null }, "geometry": { "type": "Point", "coordinates": [ 37.662672705838034, 55.764370863605578 ] } },
{ "type": "Feature", "properties": { "id": 1, "name": "лестница", "type": "stairs", "building": "old building", "floor": 2, "n_stairs": 6 }, "geometry": { "type": "Point", "coordinates": [ 37.662623457330049, 55.764370256382612 ] } },
{ "type": "Feature", "properties": { "id": 2, "name": "41", "type": "enter", "building": "old building", "floor": 2, "n_stairs": null }, "geometry": { "type": "Point", "coordinates": [ 37.662631890660784, 55.764415626470431 ] } },
{ "type": "Feature", "properties": { "id": 3, "name": "40", "type": "enter", "building": "old building", "floor": 2, "n_stairs": null }, "geometry": { "type": "Point", "coordinates": [ 37.66259304851954, 55.764403605438915 ] } },
{ "type": "Feature", "properties": { "id": 4, "name": "читальный зал", "type": "enter", "building": "old building", "floor": 2, "n_stairs": null }, "geometry": { "type": "Point", "coordinates": [ 37.662590440934515, 55.764431836104663 ] } },
{ "type": "Feature", "properties": { "id": 5, "name": "лестница", "type": "stairs", "building": "old building", "floor": 2, "n_stairs": 7 }, "geometry": { "type": "Point", "coordinates": [ 37.66224722463334, 55.764695910402352 ] } },
{ "type": "Feature", "properties": { "id": 6, "name": "лестница", "type": "stairs", "building": "old building", "floor": 2, "n_stairs": 8 }, "geometry": { "type": "Point", "coordinates": [ 37.662465593655917, 55.764702019985187 ] } },
{ "type": "Feature", "properties": { "id": 7, "name": "кафедра оформления карт и атласов", "type": "enter", "building": "old building", "floor": 2, "n_stairs": null }, "geometry": { "type": "Point", "coordinates": [ 37.662756415186188, 55.764116059208824 ] } },
{ "type": "Feature", "properties": { "id": 8, "name": "54", "type": "enter", "building": "old building", "floor": 2, "n_stairs": null }, "geometry": { "type": "Point", "coordinates": [ 37.662954042853265, 55.764173340369624 ] } },
{ "type": "Feature", "properties": { "id": 9, "name": "53", "type": "enter", "building": "old building", "floor": 2, "n_stairs": null }, "geometry": { "type": "Point", "coordinates": [ 37.66300075368801, 55.764209987458095 ] } },
{ "type": "Feature", "properties": { "id": 10, "name": "47", "type": "enter", "building": "old building", "floor": 2, "n_stairs": null }, "geometry": { "type": "Point", "coordinates": [ 37.662998371505395, 55.764229745135836 ] } },
{ "type": "Feature", "properties": { "id": 11, "name": "46", "type": "enter", "building": "old building", "floor": 2, "n_stairs": null }, "geometry": { "type": "Point", "coordinates": [ 37.663143399660832, 55.764271780722169 ] } },
{ "type": "Feature", "properties": { "id": 12, "name": "49", "type": "enter", "building": "old building", "floor": 2, "n_stairs": null }, "geometry": { "type": "Point", "coordinates": [ 37.663289701247116, 55.76429373688535 ] } },
{ "type": "Feature", "properties": { "id": 13, "name": "буфет", "type": "enter", "building": "old building", "floor": 2, "n_stairs": null }, "geometry": { "type": "Point", "coordinates": [ 37.662694994776118, 55.764291801820832 ] } },
{ "type": "Feature", "properties": { "id": 14, "name": "мужской туалет", "type": "enter", "building": "old building", "floor": 2, "n_stairs": null }, "geometry": { "type": "Point", "coordinates": [ 37.662751859763944, 55.764283848023169 ] } },
{ "type": "Feature", "properties": { "id": 15, "name": "60", "type": "enter", "building": "old building", "floor": 2, "n_stairs": null }, "geometry": { "type": "Point", "coordinates": [ 37.66245078028421, 55.763947516090099 ] } },
{ "type": "Feature", "properties": { "id": 16, "name": "лестница", "type": "stairs", "building": "old building", "floor": 2, "n_stairs": 5 }, "geometry": { "type": "Point", "coordinates": [ 37.662506663246496, 55.763907843095311 ] } },
{ "type": "Feature", "properties": { "id": 17, "name": "59", "type": "enter", "building": "old building", "floor": 2, "n_stairs": null }, "geometry": { "type": "Point", "coordinates": [ 37.662406275800834, 55.763996324331437 ] } },
{ "type": "Feature", "properties": { "id": 18, "name": "58", "type": "enter", "building": "old building", "floor": 2, "n_stairs": null }, "geometry": { "type": "Point", "coordinates": [ 37.662367279189297, 55.76406121618502 ] } },
{ "type": "Feature", "properties": { "id": 19, "name": "57", "type": "enter", "building": "old building", "floor": 2, "n_stairs": null }, "geometry": { "type": "Point", "coordinates": [ 37.662418499859385, 55.764076062200459 ] } },
{ "type": "Feature", "properties": { "id": 20, "name": "55", "type": "enter", "building": "old building", "floor": 2, "n_stairs": null }, "geometry": { "type": "Point", "coordinates": [ 37.662638200736495, 55.764139741178653 ] } },
{ "type": "Feature", "properties": { "id": 21, "name": "56а", "type": "enter", "building": "old building", "floor": 2, "n_stairs": null }, "geometry": { "type": "Point", "coordinates": [ 37.662441652852834, 55.764047935479773 ] } },
{ "type": "Feature", "properties": { "id": 22, "name": "56", "type": "enter", "building": "old building", "floor": 2, "n_stairs": null }, "geometry": { "type": "Point", "coordinates": [ 37.662514070673204, 55.764068925380663 ] } },
{ "type": "Feature", "properties": { "id": 23, "name": "301а", "type": "enter", "building": "new building", "floor": 3, "n_stairs": null }, "geometry": { "type": "Point", "coordinates": [ 37.662712445702454, 55.763684269313401 ] } },
{ "type": "Feature", "properties": { "id": 24, "name": "301б", "type": "enter", "building": "new building", "floor": 3, "n_stairs": null }, "geometry": { "type": "Point", "coordinates": [ 37.662736179676067, 55.763691004774977 ] } },
{ "type": "Feature", "properties": { "id": 25, "name": "301в", "type": "enter", "building": "new building", "floor": 3, "n_stairs": null }, "geometry": { "type": "Point", "coordinates": [ 37.662759079015409, 55.763704907352626 ] } },
{ "type": "Feature", "properties": { "id": 26, "name": "302", "type": "enter", "building": "new building", "floor": 3, "n_stairs": null }, "geometry": { "type": "Point", "coordinates": [ 37.662675918194694, 55.763678124664132 ] } },
{ "type": "Feature", "properties": { "id": 27, "name": "303", "type": "enter", "building": "new building", "floor": 3, "n_stairs": null }, "geometry": { "type": "Point", "coordinates": [ 37.662612872845742, 55.76366071070229 ] } },
{ "type": "Feature", "properties": { "id": 28, "name": "304", "type": "enter", "building": "new building", "floor": 3, "n_stairs": null }, "geometry": { "type": "Point", "coordinates": [ 37.662380808922507, 55.763598952391355 ] } },
{ "type": "Feature", "properties": { "id": 29, "name": "305", "type": "enter", "building": "new building", "floor": 3, "n_stairs": null }, "geometry": { "type": "Point", "coordinates": [ 37.662363751470579, 55.763594113861323 ] } },
{ "type": "Feature", "properties": { "id": 30, "name": "306", "type": "enter", "building": "new building", "floor": 3, "n_stairs": null }, "geometry": { "type": "Point", "coordinates": [ 37.662302059930497, 55.763575401925209 ] } },
{ "type": "Feature", "properties": { "id": 31, "name": "307", "type": "enter", "building": "new building", "floor": 3, "n_stairs": null }, "geometry": { "type": "Point", "coordinates": [ 37.662285331241428, 55.763570657109803 ] } },
{ "type": "Feature", "properties": { "id": 32, "name": "308", "type": "enter", "building": "new building", "floor": 3, "n_stairs": null }, "geometry": { "type": "Point", "coordinates": [ 37.662221547479234, 55.763551511248508 ] } },
{ "type": "Feature", "properties": { "id": 33, "name": "309", "type": "enter", "building": "new building", "floor": 3, "n_stairs": null }, "geometry": { "type": "Point", "coordinates": [ 37.662203022200288, 55.76354622820152 ] } },
{ "type": "Feature", "properties": { "id": 34, "name": "310", "type": "enter", "building": "new building", "floor": 3, "n_stairs": null }, "geometry": { "type": "Point", "coordinates": [ 37.662137075815593, 55.763526853386011 ] } },
{ "type": "Feature", "properties": { "id": 35, "name": "311", "type": "enter", "building": "new building", "floor": 3, "n_stairs": null }, "geometry": { "type": "Point", "coordinates": [ 37.662122693968612, 55.763522733519039 ] } },
{ "type": "Feature", "properties": { "id": 36, "name": "312", "type": "enter", "building": "new building", "floor": 3, "n_stairs": null }, "geometry": { "type": "Point", "coordinates": [ 37.662056849677988, 55.763503227720612 ] } },
{ "type": "Feature", "properties": { "id": 37, "name": "313", "type": "enter", "building": "new building", "floor": 3, "n_stairs": null }, "geometry": { "type": "Point", "coordinates": [ 37.662041066774925, 55.763498692184747 ] } },
{ "type": "Feature", "properties": { "id": 38, "name": "314", "type": "enter", "building": "new building", "floor": 3, "n_stairs": null }, "geometry": { "type": "Point", "coordinates": [ 37.661973431685368, 55.763480059753199 ] } },
{ "type": "Feature", "properties": { "id": 39, "name": "315", "type": "enter", "building": "new building", "floor": 3, "n_stairs": null }, "geometry": { "type": "Point", "coordinates": [ 37.661956504176651, 55.763475180305633 ] } },
{ "type": "Feature", "properties": { "id": 40, "name": "316", "type": "enter", "building": "new building", "floor": 3, "n_stairs": null }, "geometry": { "type": "Point", "coordinates": [ 37.661699417744956, 55.763401393902015 ] } },
{ "type": "Feature", "properties": { "id": 41, "name": "317", "type": "enter", "building": "new building", "floor": 3, "n_stairs": null }, "geometry": { "type": "Point", "coordinates": [ 37.661598125148117, 55.763381066282385 ] } },
{ "type": "Feature", "properties": { "id": 42, "name": "318", "type": "enter", "building": "new building", "floor": 3, "n_stairs": null }, "geometry": { "type": "Point", "coordinates": [ 37.661522584703881, 55.763350982699514 ] } },
{ "type": "Feature", "properties": { "id": 43, "name": "321", "type": "enter", "building": "new building", "floor": 3, "n_stairs": null }, "geometry": { "type": "Point", "coordinates": [ 37.66131931788393, 55.763323636813546 ] } },
{ "type": "Feature", "properties": { "id": 44, "name": "322", "type": "enter", "building": "new building", "floor": 3, "n_stairs": null }, "geometry": { "type": "Point", "coordinates": [ 37.661377202078448, 55.763340407988352 ] } },
{ "type": "Feature", "properties": { "id": 45, "name": "325", "type": "enter", "building": "new building", "floor": 3, "n_stairs": null }, "geometry": { "type": "Point", "coordinates": [ 37.661493884477522, 55.763374215141923 ] } },
{ "type": "Feature", "properties": { "id": 46, "name": "327", "type": "enter", "building": "new building", "floor": 3, "n_stairs": null }, "geometry": { "type": "Point", "coordinates": [ 37.66158201389041, 55.763399749431905 ] } },
{ "type": "Feature", "properties": { "id": 47, "name": "328", "type": "enter", "building": "new building", "floor": 3, "n_stairs": null }, "geometry": { "type": "Point", "coordinates": [ 37.661654148825882, 55.763420649528015 ] } },
{ "type": "Feature", "properties": { "id": 48, "name": "329", "type": "enter", "building": "new building", "floor": 3, "n_stairs": null }, "geometry": { "type": "Point", "coordinates": [ 37.661674077897672, 55.763426423695243 ] } },
{ "type": "Feature", "properties": { "id": 49, "name": "330", "type": "enter", "building": "new building", "floor": 3, "n_stairs": null }, "geometry": { "type": "Point", "coordinates": [ 37.661762547280453, 55.76345205645238 ] } },
{ "type": "Feature", "properties": { "id": 50, "name": "331", "type": "enter", "building": "new building", "floor": 3, "n_stairs": null }, "geometry": { "type": "Point", "coordinates": [ 37.661780019498785, 55.7634571187765 ] } },
{ "type": "Feature", "properties": { "id": 51, "name": "332", "type": "enter", "building": "new building", "floor": 3, "n_stairs": null }, "geometry": { "type": "Point", "coordinates": [ 37.66184714326986, 55.763476566928681 ] } },
{ "type": "Feature", "properties": { "id": 52, "name": "333", "type": "enter", "building": "new building", "floor": 3, "n_stairs": null }, "geometry": { "type": "Point", "coordinates": [ 37.661868316632905, 55.76348270160311 ] } },
{ "type": "Feature", "properties": { "id": 53, "name": "334", "type": "enter", "building": "new building", "floor": 3, "n_stairs": null }, "geometry": { "type": "Point", "coordinates": [ 37.661934946313664, 55.763502006586961 ] } },
{ "type": "Feature", "properties": { "id": 54, "name": "335", "type": "enter", "building": "new building", "floor": 3, "n_stairs": null }, "geometry": { "type": "Point", "coordinates": [ 37.661952996481617, 55.763507236357071 ] } },
{ "type": "Feature", "properties": { "id": 55, "name": "336", "type": "enter", "building": "new building", "floor": 3, "n_stairs": null }, "geometry": { "type": "Point", "coordinates": [ 37.662019542303078, 55.763526517031735 ] } },
{ "type": "Feature", "properties": { "id": 56, "name": "337", "type": "enter", "building": "new building", "floor": 3, "n_stairs": null }, "geometry": { "type": "Point", "coordinates": [ 37.662036776541704, 55.763531510395026 ] } },
{ "type": "Feature", "properties": { "id": 57, "name": "338", "type": "enter", "building": "new building", "floor": 3, "n_stairs": null }, "geometry": { "type": "Point", "coordinates": [ 37.662100357821203, 55.763549932125727 ] } },
{ "type": "Feature", "properties": { "id": 58, "name": "339", "type": "enter", "building": "new building", "floor": 3, "n_stairs": null }, "geometry": { "type": "Point", "coordinates": [ 37.66211825840147, 55.763555118548545 ] } },
{ "type": "Feature", "properties": { "id": 59, "name": "340", "type": "enter", "building": "new building", "floor": 3, "n_stairs": null }, "geometry": { "type": "Point", "coordinates": [ 37.662179965309868, 55.763572997197215 ] } },
{ "type": "Feature", "properties": { "id": 60, "name": "341", "type": "enter", "building": "new building", "floor": 3, "n_stairs": null }, "geometry": { "type": "Point", "coordinates": [ 37.662199080718693, 55.763578535595229 ] } },
{ "type": "Feature", "properties": { "id": 61, "name": "342", "type": "enter", "building": "new building", "floor": 3, "n_stairs": null }, "geometry": { "type": "Point", "coordinates": [ 37.662263295475626, 55.763597140844062 ] } },
{ "type": "Feature", "properties": { "id": 62, "name": "343", "type": "enter", "building": "new building", "floor": 3, "n_stairs": null }, "geometry": { "type": "Point", "coordinates": [ 37.662279212895491, 55.763601752670148 ] } },
{ "type": "Feature", "properties": { "id": 63, "name": "344", "type": "enter", "building": "new building", "floor": 3, "n_stairs": null }, "geometry": { "type": "Point", "coordinates": [ 37.662352732644436, 55.763623053885901 ] } },
{ "type": "Feature", "properties": { "id": 64, "name": "345", "type": "enter", "building": "new building", "floor": 3, "n_stairs": null }, "geometry": { "type": "Point", "coordinates": [ 37.662433156059762, 55.7636463553197 ] } },
{ "type": "Feature", "properties": { "id": 65, "name": "349", "type": "enter", "building": "new building", "floor": 3, "n_stairs": null }, "geometry": { "type": "Point", "coordinates": [ 37.662587238195179, 55.76369100647549 ] } },
{ "type": "Feature", "properties": { "id": 66, "name": "350а", "type": "enter", "building": "new building", "floor": 3, "n_stairs": null }, "geometry": { "type": "Point", "coordinates": [ 37.662725426998485, 55.76373220656599 ] } },
{ "type": "Feature", "properties": { "id": 67, "name": "350б", "type": "enter", "building": "new building", "floor": 3, "n_stairs": null }, "geometry": { "type": "Point", "coordinates": [ 37.662730339689183, 55.763743154279936 ] } },
{ "type": "Feature", "properties": { "id": 68, "name": "350в", "type": "enter", "building": "new building", "floor": 3, "n_stairs": null }, "geometry": { "type": "Point", "coordinates": [ 37.662703393578809, 55.763744609254928 ] } },
{ "type": "Feature", "properties": { "id": 69, "name": "351", "type": "enter", "building": "new building", "floor": 3, "n_stairs": null }, "geometry": { "type": "Point", "coordinates": [ 37.662613408651275, 55.763769160387127 ] } },
{ "type": "Feature", "properties": { "id": 70, "name": "352", "type": "enter", "building": "new building", "floor": 3, "n_stairs": null }, "geometry": { "type": "Point", "coordinates": [ 37.662583972018517, 55.763801443816035 ] } },
{ "type": "Feature", "properties": { "id": 71, "name": "353", "type": "enter", "building": "new building", "floor": 3, "n_stairs": null }, "geometry": { "type": "Point", "coordinates": [ 37.662575822211522, 55.763810381777752 ] } },
{ "type": "Feature", "properties": { "id": 72, "name": "354", "type": "enter", "building": "new building", "floor": 3, "n_stairs": null }, "geometry": { "type": "Point", "coordinates": [ 37.662525376964403, 55.763865705476924 ] } },
{ "type": "Feature", "properties": { "id": 73, "name": "355", "type": "enter", "building": "new building", "floor": 3, "n_stairs": null }, "geometry": { "type": "Point", "coordinates": [ 37.662517876335009, 55.7638739314663 ] } },
{ "type": "Feature", "properties": { "id": 74, "name": "женский туалет", "type": "enter", "building": "new building", "floor": 3, "n_stairs": null }, "geometry": { "type": "Point", "coordinates": [ 37.66247970571203, 55.763659842348233 ] } },
{ "type": "Feature", "properties": { "id": 75, "name": "кафедра физкультуры", "type": "enter", "building": "new building", "floor": 3, "n_stairs": null }, "geometry": { "type": "Point", "coordinates": [ 37.662180426059848, 55.76321090923755 ] } },
{ "type": "Feature", "properties": { "id": 76, "name": "лестница", "type": "stairs", "building": "new building", "floor": 3, "n_stairs": null }, "geometry": null },
{ "type": "Feature", "properties": { "id": 77, "name": "лестница", "type": "stairs", "building": "new building", "floor": 3, "n_stairs": 5 }, "geometry": { "type": "Point", "coordinates": [ 37.662506663246496, 55.763907843095311 ] } },
{ "type": "Feature", "properties": { "id": 78, "name": "лестница", "type": "stairs", "building": "new building", "floor": 3, "n_stairs": 3 }, "geometry": { "type": "Point", "coordinates": [ 37.662166765317195, 55.763436722772227 ] } },
{ "type": "Feature", "properties": { "id": 79, "name": "лестница", "type": "stairs", "building": "new building", "floor": 3, "n_stairs": 4 }, "geometry": { "type": "Point", "coordinates": [ 37.662124494514011, 55.763245202468617 ] } },
{ "type": "Feature", "properties": { "id": 80, "name": "лестница", "type": "stairs", "building": "new building", "floor": 3, "n_stairs": 1 }, "geometry": { "type": "Point", "coordinates": [ 37.661765106144102, 55.763420005778919 ] } },
{ "type": "Feature", "properties": { "id": 81, "name": "лестница", "type": "stairs", "building": "new building", "floor": 3, "n_stairs": 2 }, "geometry": { "type": "Point", "coordinates": [ 37.662559026726449, 55.763489137476448 ] } },
{ "type": "Feature", "properties": { "id": 82, "name": "мужская раздевалка", "type": "enter", "building": "new building", "floor": 3, "n_stairs": null }, "geometry": null },
{ "type": "Feature", "properties": { "id": 83, "name": "мужская раздевалка", "type": "enter", "building": "new building", "floor": 3, "n_stairs": null }, "geometry": { "type": "Point", "coordinates": [ 37.662052803824352, 55.763323858046924 ] } },
{ "type": "Feature", "properties": { "id": 84, "name": "мужской туалет", "type": "enter", "building": "new building", "floor": 3, "n_stairs": null }, "geometry": { "type": "Point", "coordinates": [ 37.662533452572099, 55.763675418071642 ] } },
{ "type": "Feature", "properties": { "id": 85, "name": "служебное помещение", "type": "enter", "building": "new building", "floor": 3, "n_stairs": null }, "geometry": { "type": "Point", "coordinates": [ 37.662504655122184, 55.763667067574325 ] } },
{ "type": "Feature", "properties": { "id": 86, "name": "спортивный зал", "type": "enter", "building": "new building", "floor": 3, "n_stairs": null }, "geometry": { "type": "Point", "coordinates": [ 37.662188397411384, 55.763229594332472 ] } },
{ "type": "Feature", "properties": { "id": 87, "name": "спортивный зал", "type": "enter", "building": "new building", "floor": 3, "n_stairs": null }, "geometry": null },
{ "type": "Feature", "properties": { "id": 88, "name": "enter", "type": "enter", "building": "new building", "floor": 2, "n_stairs": null }, "geometry": { "type": "Point", "coordinates": [ 37.661917183021131, 55.763563866075842 ] } },
{ "type": "Feature", "properties": { "id": 89, "name": "Студцентр", "type": "enter", "building": "new building", "floor": 2, "n_stairs": null }, "geometry": { "type": "Point", "coordinates": [ 37.662377360760992, 55.763593931207041 ] } },
{ "type": "Feature", "properties": { "id": 90, "name": "Аквариум", "type": "enter", "building": "new building", "floor": 2, "n_stairs": null }, "geometry": { "type": "Point", "coordinates": [ 37.661693508886493, 55.763421720010939 ] } },
{ "type": "Feature", "properties": { "id": 91, "name": null, "type": "enter", "building": "new building", "floor": 2, "n_stairs": null }, "geometry": { "type": "Point", "coordinates": [ 37.662609465783234, 55.763673209198963 ] } },
{ "type": "Feature", "properties": { "id": 92, "name": null, "type": "enter", "building": "new building", "floor": 2, "n_stairs": null }, "geometry": { "type": "Point", "coordinates": [ 37.662589354299548, 55.763667054318724 ] } },
{ "type": "Feature", "properties": { "id": 93, "name": null, "type": "enter", "building": "new building", "floor": 2, "n_stairs": null }, "geometry": { "type": "Point", "coordinates": [ 37.662509991060688, 55.763651602881559 ] } },
{ "type": "Feature", "properties": { "id": 94, "name": "Аэрокосмос", "type": "enter", "building": "new building", "floor": 2, "n_stairs": null }, "geometry": { "type": "Point", "coordinates": [ 37.662495404618355, 55.763579222655096 ] } },
{ "type": "Feature", "properties": { "id": 95, "name": "stairs", "type": "stairs", "building": "new building", "floor": 2, "n_stairs": 1 }, "geometry": { "type": "Point", "coordinates": [ 37.661902223039824, 55.763410273265883 ] } },
{ "type": "Feature", "properties": { "id": 96, "name": null, "type": "enter", "building": "new building", "floor": 2, "n_stairs": null }, "geometry": { "type": "Point", "coordinates": [ 37.662003282338176, 55.763388190740557 ] } },
{ "type": "Feature", "properties": { "id": 97, "name": null, "type": "enter", "building": "new building", "floor": 2, "n_stairs": null }, "geometry": { "type": "Point", "coordinates": [ 37.662021927111525, 55.763367806709631 ] } },
{ "type": "Feature", "properties": { "id": 98, "name": "stairs", "type": "stairs", "building": "new building", "floor": 2, "n_stairs": 3 }, "geometry": { "type": "Point", "coordinates": [ 37.662029152799249, 55.763410742774155 ] } },
{ "type": "Feature", "properties": { "id": 99, "name": "213", "type": "enter", "building": "new building", "floor": 2, "n_stairs": null }, "geometry": { "type": "Point", "coordinates": [ 37.662656437148016, 55.763717713646749 ] } },
{ "type": "Feature", "properties": { "id": 100, "name": "212", "type": "enter", "building": "new building", "floor": 2, "n_stairs": null }, "geometry": { "type": "Point", "coordinates": [ 37.662675188567775, 55.763723146630703 ] } },
{ "type": "Feature", "properties": { "id": 101, "name": "215", "type": "enter", "building": "new building", "floor": 2, "n_stairs": null }, "geometry": { "type": "Point", "coordinates": [ 37.662740805845203, 55.763742158382065 ] } },
{ "type": "Feature", "properties": { "id": 102, "name": "Отдел госзакупок", "type": "enter", "building": "new building", "floor": 2, "n_stairs": null }, "geometry": { "type": "Point", "coordinates": [ 37.662755196004312, 55.763753826906679 ] } },
{ "type": "Feature", "properties": { "id": 103, "name": "Стамотологический кабинет", "type": "enter", "building": "new building", "floor": 2, "n_stairs": null }, "geometry": { "type": "Point", "coordinates": [ 37.662777093473942, 55.763720383769879 ] } },
{ "type": "Feature", "properties": { "id": 104, "name": null, "type": "enter", "building": "new building", "floor": 2, "n_stairs": null }, "geometry": { "type": "Point", "coordinates": [ 37.662757999895589, 55.763714817693788 ] } },
{ "type": "Feature", "properties": { "id": 105, "name": "203", "type": "enter", "building": "new building", "floor": 2, "n_stairs": null }, "geometry": { "type": "Point", "coordinates": [ 37.66269502291712, 55.763696889195451 ] } },
{ "type": "Feature", "properties": { "id": 106, "name": "204", "type": "enter", "building": "new building", "floor": 2, "n_stairs": null }, "geometry": { "type": "Point", "coordinates": [ 37.662674412161124, 55.763690607410417 ] } },
{ "type": "Feature", "properties": { "id": 107, "name": "Белый бар", "type": "enter", "building": "new building", "floor": 2, "n_stairs": null }, "geometry": { "type": "Point", "coordinates": [ 37.661315130956311, 55.7633217974373 ] } },
{ "type": "Feature", "properties": { "id": 108, "name": "Актовый зал", "type": "enter", "building": "new building", "floor": 2, "n_stairs": null }, "geometry": { "type": "Point", "coordinates": [ 37.661707806493325, 55.763346027361123 ] } },
{ "type": "Feature", "properties": { "id": 109, "name": "Гардероб", "type": "enter", "building": "new building", "floor": 2, "n_stairs": null }, "geometry": { "type": "Point", "coordinates": [ 37.662232357246978, 55.763551784217483 ] } },
{ "type": "Feature", "properties": { "id": 110, "name": "208", "type": "enter", "building": "new building", "floor": 2, "n_stairs": null }, "geometry": { "type": "Point", "coordinates": [ 37.662468379638625, 55.763663226369786 ] } },
{ "type": "Feature", "properties": { "id": 111, "name": "209", "type": "enter", "building": "new building", "floor": 2, "n_stairs": null }, "geometry": { "type": "Point", "coordinates": [ 37.662532455884765, 55.763681791656246 ] } },
{ "type": "Feature", "properties": { "id": 112, "name": "WC (для инвалидов)", "type": "enter", "building": "new building", "floor": 2, "n_stairs": null }, "geometry": { "type": "Point", "coordinates": [ 37.662574000462321, 55.76369382867167 ] } },
{ "type": "Feature", "properties": { "id": 113, "name": "Приемная комиссия", "type": "enter", "building": "new building", "floor": 2, "n_stairs": null }, "geometry": { "type": "Point", "coordinates": [ 37.662602631540388, 55.763702124163061 ] } },
{ "type": "Feature", "properties": { "id": 114, "name": "Военная кафедра", "type": "enter", "building": "new building", "floor": 2, "n_stairs": null }, "geometry": { "type": "Point", "coordinates": [ 37.66218964490588, 55.763368139124928 ] } },
{ "type": "Feature", "properties": { "id": 115, "name": "Редакция журнала \"Геодезия и аэрофотосъемка\"", "type": "enter", "building": "new building", "floor": 2, "n_stairs": null }, "geometry": { "type": "Point", "coordinates": [ 37.662208876847025, 55.763390525884965 ] } },
{ "type": "Feature", "properties": { "id": 116, "name": "261А", "type": "enter", "building": "new building", "floor": 2, "n_stairs": null }, "geometry": { "type": "Point", "coordinates": [ 37.662139634509565, 55.763440711061271 ] } },
{ "type": "Feature", "properties": { "id": 117, "name": "stairs", "type": "stairs", "building": "new building", "floor": 2, "n_stairs": 2 }, "geometry": { "type": "Point", "coordinates": [ 37.662487667232291, 55.763547526829832 ] } },
{ "type": "Feature", "properties": { "id": 118, "name": null, "type": "enter", "building": "new building", "floor": 2, "n_stairs": null }, "geometry": { "type": "Point", "coordinates": [ 37.662166821787174, 55.763436660816261 ] } },
{ "type": "Feature", "properties": { "id": 119, "name": "лестница", "type": "stairs", "building": "old building", "floor": 2, "n_stairs": null }, "geometry": { "type": "Point", "coordinates": [ 37.66231461750025, 55.764705372371921 ] } },
{ "type": "Feature", "properties": { "id": 120, "name": "95", "type": "enter", "building": "old building", "floor": 1, "n_stairs": null }, "geometry": { "type": "Point", "coordinates": [ 37.662380721836804, 55.764032996699584 ] } },
{ "type": "Feature", "properties": { "id": 121, "name": "95а", "type": "enter", "building": "old building", "floor": 1, "n_stairs": null }, "geometry": { "type": "Point", "coordinates": [ 37.662443627188956, 55.764051229472912 ] } },
{ "type": "Feature", "properties": { "id": 122, "name": "93", "type": "enter", "building": "old building", "floor": 1, "n_stairs": null }, "geometry": { "type": "Point", "coordinates": [ 37.662359314074259, 55.764055691470467 ] } },
{ "type": "Feature", "properties": { "id": 123, "name": "96", "type": "enter", "building": "old building", "floor": 1, "n_stairs": null }, "geometry": { "type": "Point", "coordinates": [ 37.662582902998373, 55.7640915977791 ] } },
{ "type": "Feature", "properties": { "id": 124, "name": "92", "type": "enter", "building": "old building", "floor": 1, "n_stairs": null }, "geometry": { "type": "Point", "coordinates": [ 37.662484242558143, 55.764091901283606 ] } },
{ "type": "Feature", "properties": { "id": 125, "name": "91", "type": "enter", "building": "old building", "floor": 1, "n_stairs": null }, "geometry": { "type": "Point", "coordinates": [ 37.662561707922507, 55.764114354162146 ] } },
{ "type": "Feature", "properties": { "id": 126, "name": "90", "type": "enter", "building": "old building", "floor": 1, "n_stairs": null }, "geometry": { "type": "Point", "coordinates": [ 37.662611452935217, 55.764128772452239 ] } },
{ "type": "Feature", "properties": { "id": 127, "name": "89", "type": "enter", "building": "old building", "floor": 1, "n_stairs": null }, "geometry": { "type": "Point", "coordinates": [ 37.662679226656799, 55.764164939075457 ] } },
{ "type": "Feature", "properties": { "id": 128, "name": "89б", "type": "enter", "building": "old building", "floor": 1, "n_stairs": null }, "geometry": { "type": "Point", "coordinates": [ 37.662758821964061, 55.764221802837312 ] } },
{ "type": "Feature", "properties": { "id": 129, "name": "89а", "type": "enter", "building": "old building", "floor": 1, "n_stairs": null }, "geometry": { "type": "Point", "coordinates": [ 37.662711964457941, 55.764208318792008 ] } },
{ "type": "Feature", "properties": { "id": 130, "name": "98", "type": "enter", "building": "old building", "floor": 1, "n_stairs": null }, "geometry": { "type": "Point", "coordinates": [ 37.662717685294872, 55.764266917265161 ] } },
{ "type": "Feature", "properties": { "id": 131, "name": "99", "type": "enter", "building": "old building", "floor": 1, "n_stairs": null }, "geometry": { "type": "Point", "coordinates": [ 37.66268554580197, 55.764302164463714 ] } },
{ "type": "Feature", "properties": { "id": 132, "name": "100", "type": "enter", "building": "old building", "floor": 1, "n_stairs": null }, "geometry": { "type": "Point", "coordinates": [ 37.662631769597482, 55.764328705823573 ] } },
{ "type": "Feature", "properties": { "id": 133, "name": "102", "type": "enter", "building": "old building", "floor": 1, "n_stairs": null }, "geometry": { "type": "Point", "coordinates": [ 37.662675494631401, 55.764366140717314 ] } },
{ "type": "Feature", "properties": { "id": 134, "name": "женский туалет", "type": "enter", "building": "old building", "floor": 1, "n_stairs": null }, "geometry": { "type": "Point", "coordinates": [ 37.6627266255419, 55.764310064865761 ] } },
{ "type": "Feature", "properties": { "id": 135, "name": "108", "type": "enter", "building": "old building", "floor": 1, "n_stairs": null }, "geometry": { "type": "Point", "coordinates": [ 37.662912807047455, 55.764232722193114 ] } },
{ "type": "Feature", "properties": { "id": 136, "name": "108а", "type": "enter", "building": "old building", "floor": 1, "n_stairs": null }, "geometry": { "type": "Point", "coordinates": [ 37.662988543425072, 55.764234625583306 ] } },
{ "type": "Feature", "properties": { "id": 137, "name": "108б", "type": "enter", "building": "old building", "floor": 1, "n_stairs": null }, "geometry": { "type": "Point", "coordinates": [ 37.663062126935067, 55.764255953358649 ] } },
{ "type": "Feature", "properties": { "id": 138, "name": "109", "type": "enter", "building": "old building", "floor": 1, "n_stairs": null }, "geometry": { "type": "Point", "coordinates": [ 37.663142770048459, 55.764279327307371 ] } },
{ "type": "Feature", "properties": { "id": 139, "name": "110", "type": "enter", "building": "old building", "floor": 1, "n_stairs": null }, "geometry": { "type": "Point", "coordinates": [ 37.663200336221784, 55.76429601252844 ] } },
{ "type": "Feature", "properties": { "id": 140, "name": "110а", "type": "enter", "building": "old building", "floor": 1, "n_stairs": null }, "geometry": { "type": "Point", "coordinates": [ 37.663271992116016, 55.764316781562371 ] } },
{ "type": "Feature", "properties": { "id": 141, "name": "107", "type": "enter", "building": "old building", "floor": 1, "n_stairs": null }, "geometry": { "type": "Point", "coordinates": [ 37.663317170352322, 55.764312881973432 ] } },
{ "type": "Feature", "properties": { "id": 142, "name": "94", "type": "enter", "building": "old building", "floor": 1, "n_stairs": null }, "geometry": { "type": "Point", "coordinates": [ 37.663291424567248, 55.764292874429785 ] } },
{ "type": "Feature", "properties": { "id": 143, "name": "111", "type": "enter", "building": "old building", "floor": 1, "n_stairs": null }, "geometry": { "type": "Point", "coordinates": [ 37.663170652467763, 55.764257869505158 ] } },
{ "type": "Feature", "properties": { "id": 144, "name": "106", "type": "enter", "building": "old building", "floor": 1, "n_stairs": null }, "geometry": { "type": "Point", "coordinates": [ 37.663020777066762, 55.764214429157541 ] } },
{ "type": "Feature", "properties": { "id": 145, "name": "103", "type": "enter", "building": "old building", "floor": 1, "n_stairs": null }, "geometry": { "type": "Point", "coordinates": [ 37.662882123953118, 55.764164179228757 ] } },
{ "type": "Feature", "properties": { "id": 146, "name": "101", "type": "enter", "building": "old building", "floor": 1, "n_stairs": null }, "geometry": { "type": "Point", "coordinates": [ 37.662765290515587, 55.76413031074793 ] } },
{ "type": "Feature", "properties": { "id": 147, "name": "97", "type": "enter", "building": "old building", "floor": 1, "n_stairs": null }, "geometry": { "type": "Point", "coordinates": [ 37.662654876527576, 55.764112458881534 ] } },
{ "type": "Feature", "properties": { "id": 148, "name": "лестница", "type": "stairs", "building": "old building", "floor": 1, "n_stairs": 8 }, "geometry": { "type": "Point", "coordinates": [ 37.662510874533652, 55.764686696516364 ] } },
{ "type": "Feature", "properties": { "id": 149, "name": "библиотека", "type": "enter", "building": "old building", "floor": 1, "n_stairs": null }, "geometry": { "type": "Point", "coordinates": [ 37.662510874533652, 55.764686696516364 ] } },
{ "type": "Feature", "properties": { "id": 150, "name": "Отдел кадров сотрудников", "type": "enter", "building": "old building", "floor": 1, "n_stairs": null }, "geometry": { "type": "Point", "coordinates": [ 37.661938367922907, 55.764677254003551 ] } },
{ "type": "Feature", "properties": { "id": 151, "name": "Студенческий отдел кадров", "type": "enter", "building": "old building", "floor": 1, "n_stairs": null }, "geometry": { "type": "Point", "coordinates": [ 37.661855831596014, 55.76467143116588 ] } },
{ "type": "Feature", "properties": { "id": 152, "name": "лестница", "type": "stairs", "building": "old building", "floor": 1, "n_stairs": 7 }, "geometry": { "type": "Point", "coordinates": [ 37.66224722463334, 55.764695910402352 ] } },
{ "type": "Feature", "properties": { "id": 153, "name": "лестница", "type": "stairs", "building": "old building", "floor": 1, "n_stairs": 6 }, "geometry": { "type": "Point", "coordinates": [ 37.66264003313411, 55.764352077840229 ] } },
{ "type": "Feature", "properties": { "id": 154, "name": "музей \"Золотые комнаты\"", "type": "stairs", "building": "old building", "floor": 2, "n_stairs": null }, "geometry": { "type": "Point", "coordinates": [ 37.66224722463334, 55.764695910402352 ] } },
{ "type": "Feature", "properties": { "id": 155, "name": "лестница", "type": "stairs", "building": "old building", "floor": 1, "n_stairs": 9 }, "geometry": { "type": "Point", "coordinates": [ 37.662746786330203, 55.76417605019531 ] } },
{ "type": "Feature", "properties": { "id": 156, "name": "лестница", "type": "stairs", "building": "old building", "floor": 1, "n_stairs": 10 }, "geometry": { "type": "Point", "coordinates": [ 37.662856403216118, 55.764206862650362 ] } }
]
}
