{
"type": "FeatureCollection",
"name": "graff_3_floor",
"crs": { "type": "name", "properties": { "name": "urn:ogc:def:crs:OGC:1.3:CRS84" } },
"features": [
{ "type": "Feature", "properties": { "id": null }, "geometry": { "type": "LineString", "coordinates": [ [ 37.662559026726449, 55.763489137476448 ], [ 37.662568288332523, 55.763491693428641 ], [ 37.662443882961874, 55.763635301437418 ] ] } },
{ "type": "Feature", "properties": { "id": null }, "geometry": { "type": "LineString", "coordinates": [ [ 37.662443882961874, 55.763635301437418 ], [ 37.662433156059762, 55.7636463553197 ] ] } },
{ "type": "Feature", "properties": { "id": null }, "geometry": { "type": "LineString", "coordinates": [ [ 37.662443882961874, 55.763635301437418 ], [ 37.66236825410364, 55.763613596962877 ] ] } },
{ "type": "Feature", "properties": { "id": null }, "geometry": { "type": "LineString", "coordinates": [ [ 37.661502358840025, 55.76336509656047 ], [ 37.661384876848224, 55.763331380794298 ] ] } },
{ "type": "Feature", "properties": { "id": null }, "geometry": { "type": "LineString", "coordinates": [ [ 37.661384876848224, 55.763331380794298 ], [ 37.661327322934191, 55.763314863523611 ] ] } },
{ "type": "Feature", "properties": { "id": null }, "geometry": { "type": "LineString", "coordinates": [ [ 37.661510087020325, 55.763367314445233 ], [ 37.661502358840025, 55.76336509656047 ] ] } },
{ "type": "Feature", "properties": { "id": null }, "geometry": { "type": "LineString", "coordinates": [ [ 37.661590167206711, 55.763390296391641 ], [ 37.661510087020325, 55.763367314445233 ] ] } },
{ "type": "Feature", "properties": { "id": null }, "geometry": { "type": "LineString", "coordinates": [ [ 37.661663171587222, 55.763411247676046 ], [ 37.661590167206711, 55.763390296391641 ] ] } },
{ "type": "Feature", "properties": { "id": null }, "geometry": { "type": "LineString", "coordinates": [ [ 37.661682370617491, 55.763416757541904 ], [ 37.661663171587222, 55.763411247676046 ] ] } },
{ "type": "Feature", "properties": { "id": null }, "geometry": { "type": "LineString", "coordinates": [ [ 37.661685697819699, 55.763417712404603 ], [ 37.661682370617491, 55.763416757541904 ] ] } },
{ "type": "Feature", "properties": { "id": null }, "geometry": { "type": "LineString", "coordinates": [ [ 37.661750606124727, 55.76343634022323 ], [ 37.661685697819699, 55.763417712404603 ] ] } },
{ "type": "Feature", "properties": { "id": null }, "geometry": { "type": "LineString", "coordinates": [ [ 37.661772109150505, 55.763442511305094 ], [ 37.661750606124727, 55.76343634022323 ] ] } },
{ "type": "Feature", "properties": { "id": null }, "geometry": { "type": "LineString", "coordinates": [ [ 37.661789211200329, 55.763447419365505 ], [ 37.661772109150505, 55.763442511305094 ] ] } },
{ "type": "Feature", "properties": { "id": null }, "geometry": { "type": "LineString", "coordinates": [ [ 37.661856176264216, 55.763466637446513 ], [ 37.661789211200329, 55.763447419365505 ] ] } },
{ "type": "Feature", "properties": { "id": null }, "geometry": { "type": "LineString", "coordinates": [ [ 37.661877426147775, 55.763472735879937 ], [ 37.661856176264216, 55.763466637446513 ] ] } },
{ "type": "Feature", "properties": { "id": null }, "geometry": { "type": "LineString", "coordinates": [ [ 37.661940687255111, 55.763490890974772 ], [ 37.661877426147775, 55.763472735879937 ] ] } },
{ "type": "Feature", "properties": { "id": null }, "geometry": { "type": "LineString", "coordinates": [ [ 37.661943527391628, 55.763491706056108 ], [ 37.661940687255111, 55.763490890974772 ] ] } },
{ "type": "Feature", "properties": { "id": null }, "geometry": { "type": "LineString", "coordinates": [ [ 37.66195836271536, 55.763495963596334 ], [ 37.661943527391628, 55.763491706056108 ] ] } },
{ "type": "Feature", "properties": { "id": null }, "geometry": { "type": "LineString", "coordinates": [ [ 37.661962150052759, 55.763497050511702 ], [ 37.66195836271536, 55.763495963596334 ] ] } },
{ "type": "Feature", "properties": { "id": null }, "geometry": { "type": "LineString", "coordinates": [ [ 37.662040955314552, 55.763519666571739 ], [ 37.662028333203153, 55.763516044193963 ] ] } },
{ "type": "Feature", "properties": { "id": null }, "geometry": { "type": "LineString", "coordinates": [ [ 37.662046175444154, 55.763521164679375 ], [ 37.662040955314552, 55.763519666571739 ] ] } },
{ "type": "Feature", "properties": { "id": null }, "geometry": { "type": "LineString", "coordinates": [ [ 37.662108824380887, 55.763539144089407 ], [ 37.662046175444154, 55.763521164679375 ] ] } },
{ "type": "Feature", "properties": { "id": null }, "geometry": { "type": "LineString", "coordinates": [ [ 37.662122673755455, 55.763543118675365 ], [ 37.662108824380887, 55.763539144089407 ] ] } },
{ "type": "Feature", "properties": { "id": null }, "geometry": { "type": "LineString", "coordinates": [ [ 37.662127893884701, 55.763544616782902 ], [ 37.662122673755455, 55.763543118675365 ] ] } },
{ "type": "Feature", "properties": { "id": null }, "geometry": { "type": "LineString", "coordinates": [ [ 37.662188738447703, 55.763562078361716 ], [ 37.662127893884701, 55.763544616782902 ] ] } },
{ "type": "Feature", "properties": { "id": null }, "geometry": { "type": "LineString", "coordinates": [ [ 37.662208875808844, 55.76356785751603 ], [ 37.662188738447703, 55.763562078361716 ] ] } },
{ "type": "Feature", "properties": { "id": null }, "geometry": { "type": "LineString", "coordinates": [ [ 37.66227218449027, 55.763586026263994 ], [ 37.662208875808844, 55.76356785751603 ] ] } },
{ "type": "Feature", "properties": { "id": null }, "geometry": { "type": "LineString", "coordinates": [ [ 37.662289118263594, 55.763590886031288 ], [ 37.66227218449027, 55.763586026263994 ] ] } },
{ "type": "Feature", "properties": { "id": null }, "geometry": { "type": "LineString", "coordinates": [ [ 37.662351022549799, 55.76360865173654 ], [ 37.662289118263594, 55.763590886031288 ] ] } },
{ "type": "Feature", "properties": { "id": null }, "geometry": { "type": "LineString", "coordinates": [ [ 37.662362338428792, 55.763611899243024 ], [ 37.662351022549799, 55.76360865173654 ] ] } },
{ "type": "Feature", "properties": { "id": null }, "geometry": { "type": "LineString", "coordinates": [ [ 37.66236825410364, 55.763613596962877 ], [ 37.662362338428792, 55.763611899243024 ] ] } },
{ "type": "Feature", "properties": { "id": null }, "geometry": { "type": "LineString", "coordinates": [ [ 37.662443882961874, 55.763635301437418 ], [ 37.66249066982968, 55.763649193697567 ] ] } },
{ "type": "Feature", "properties": { "id": null }, "geometry": { "type": "LineString", "coordinates": [ [ 37.66249066982968, 55.763649193697567 ], [ 37.662514344073045, 55.763656223207406 ] ] } },
{ "type": "Feature", "properties": { "id": null }, "geometry": { "type": "LineString", "coordinates": [ [ 37.662514344073045, 55.763656223207406 ], [ 37.662543633257151, 55.76366491994186 ] ] } },
{ "type": "Feature", "properties": { "id": null }, "geometry": { "type": "LineString", "coordinates": [ [ 37.662534077131347, 55.763878491968633 ], [ 37.662506663246496, 55.763907843095311 ] ] } },
{ "type": "Feature", "properties": { "id": null }, "geometry": { "type": "LineString", "coordinates": [ [ 37.662541515349254, 55.763870528896646 ], [ 37.662534077131347, 55.763878491968633 ] ] } },
{ "type": "Feature", "properties": { "id": null }, "geometry": { "type": "LineString", "coordinates": [ [ 37.662592862247301, 55.763815558868806 ], [ 37.662541515349254, 55.763870528896646 ] ] } },
{ "type": "Feature", "properties": { "id": null }, "geometry": { "type": "LineString", "coordinates": [ [ 37.662600929272067, 55.763806922620212 ], [ 37.662592862247301, 55.763815558868806 ] ] } },
{ "type": "Feature", "properties": { "id": null }, "geometry": { "type": "LineString", "coordinates": [ [ 37.662631076232422, 55.763774648435927 ], [ 37.662600929272067, 55.763806922620212 ] ] } },
{ "type": "Feature", "properties": { "id": null }, "geometry": { "type": "LineString", "coordinates": [ [ 37.662676086088517, 55.763726462603159 ], [ 37.662631076232422, 55.763774648435927 ] ] } },
{ "type": "Feature", "properties": { "id": null }, "geometry": { "type": "LineString", "coordinates": [ [ 37.662675757932263, 55.76370415125708 ], [ 37.662692330401526, 55.763709072062106 ], [ 37.662676086088517, 55.763726462603159 ] ] } },
{ "type": "Feature", "properties": { "id": null }, "geometry": { "type": "LineString", "coordinates": [ [ 37.662658620751927, 55.763699062774378 ], [ 37.662675757932263, 55.76370415125708 ] ] } },
{ "type": "Feature", "properties": { "id": null }, "geometry": { "type": "LineString", "coordinates": [ [ 37.662596107400219, 55.763680500904655 ], [ 37.662658620751927, 55.763699062774378 ] ] } },
{ "type": "Feature", "properties": { "id": null }, "geometry": { "type": "LineString", "coordinates": [ [ 37.662543633257151, 55.76366491994186 ], [ 37.662596107400219, 55.763680500904655 ] ] } },
{ "type": "Feature", "properties": { "id": null }, "geometry": { "type": "LineString", "coordinates": [ [ 37.661327322934191, 55.763314863523611 ], [ 37.66131931788393, 55.763323636813546 ] ] } },
{ "type": "Feature", "properties": { "id": null }, "geometry": { "type": "LineString", "coordinates": [ [ 37.661384876848224, 55.763331380794298 ], [ 37.661377202078448, 55.763340407988352 ] ] } },
{ "type": "Feature", "properties": { "id": null }, "geometry": { "type": "LineString", "coordinates": [ [ 37.661502358840025, 55.76336509656047 ], [ 37.661493884477522, 55.763374215141923 ] ] } },
{ "type": "Feature", "properties": { "id": null }, "geometry": { "type": "LineString", "coordinates": [ [ 37.661510087020325, 55.763367314445233 ], [ 37.661522584703881, 55.763350982699514 ] ] } },
{ "type": "Feature", "properties": { "id": null }, "geometry": { "type": "LineString", "coordinates": [ [ 37.661590167206711, 55.763390296391641 ], [ 37.66158201389041, 55.763399749431905 ] ] } },
{ "type": "Feature", "properties": { "id": null }, "geometry": { "type": "LineString", "coordinates": [ [ 37.661590167206711, 55.763390296391641 ], [ 37.661598125148117, 55.763381066282385 ] ] } },
{ "type": "Feature", "properties": { "id": null }, "geometry": { "type": "LineString", "coordinates": [ [ 37.661663171587222, 55.763411247676046 ], [ 37.661654148825882, 55.763420649528015 ] ] } },
{ "type": "Feature", "properties": { "id": null }, "geometry": { "type": "LineString", "coordinates": [ [ 37.661682370617491, 55.763416757541904 ], [ 37.661674077897672, 55.763426423695243 ] ] } },
{ "type": "Feature", "properties": { "id": null }, "geometry": { "type": "LineString", "coordinates": [ [ 37.661685697819699, 55.763417712404603 ], [ 37.661699417744956, 55.763401393902015 ] ] } },
{ "type": "Feature", "properties": { "id": null }, "geometry": { "type": "LineString", "coordinates": [ [ 37.661750606124727, 55.76343634022323 ], [ 37.661765106144102, 55.763420005778919 ] ] } },
{ "type": "Feature", "properties": { "id": null }, "geometry": { "type": "LineString", "coordinates": [ [ 37.661772109150505, 55.763442511305094 ], [ 37.661762547280453, 55.76345205645238 ] ] } },
{ "type": "Feature", "properties": { "id": null }, "geometry": { "type": "LineString", "coordinates": [ [ 37.661789211200329, 55.763447419365505 ], [ 37.661780019498785, 55.7634571187765 ] ] } },
{ "type": "Feature", "properties": { "id": null }, "geometry": { "type": "LineString", "coordinates": [ [ 37.661856176264216, 55.763466637446513 ], [ 37.66184714326986, 55.763476566928681 ] ] } },
{ "type": "Feature", "properties": { "id": null }, "geometry": { "type": "LineString", "coordinates": [ [ 37.661868316632905, 55.76348270160311 ], [ 37.661877426147775, 55.763472735879937 ] ] } },
{ "type": "Feature", "properties": { "id": null }, "geometry": { "type": "LineString", "coordinates": [ [ 37.661943527391628, 55.763491706056108 ], [ 37.661934946313664, 55.763502006586961 ] ] } },
{ "type": "Feature", "properties": { "id": null }, "geometry": { "type": "LineString", "coordinates": [ [ 37.661940687255111, 55.763490890974772 ], [ 37.661956504176651, 55.763475180305633 ] ] } },
{ "type": "Feature", "properties": { "id": null }, "geometry": { "type": "LineString", "coordinates": [ [ 37.66195836271536, 55.763495963596334 ], [ 37.661973431685368, 55.763480059753199 ] ] } },
{ "type": "Feature", "properties": { "id": null }, "geometry": { "type": "LineString", "coordinates": [ [ 37.661962150052759, 55.763497050511702 ], [ 37.661952996481617, 55.763507236357071 ] ] } },
{ "type": "Feature", "properties": { "id": null }, "geometry": { "type": "LineString", "coordinates": [ [ 37.662028333203153, 55.763516044193963 ], [ 37.662019542303078, 55.763526517031735 ] ] } },
{ "type": "Feature", "properties": { "id": null }, "geometry": { "type": "LineString", "coordinates": [ [ 37.662028333203153, 55.763516044193963 ], [ 37.662041066774925, 55.763498692184747 ] ] } },
{ "type": "Feature", "properties": { "id": null }, "geometry": { "type": "LineString", "coordinates": [ [ 37.662040955314552, 55.763519666571739 ], [ 37.662056849677988, 55.763503227720612 ] ] } },
{ "type": "Feature", "properties": { "id": null }, "geometry": { "type": "LineString", "coordinates": [ [ 37.662046175444154, 55.763521164679375 ], [ 37.662036776541704, 55.763531510395026 ] ] } },
{ "type": "Feature", "properties": { "id": null }, "geometry": { "type": "LineString", "coordinates": [ [ 37.662108824380887, 55.763539144089407 ], [ 37.662100357821203, 55.763549932125727 ] ] } },
{ "type": "Feature", "properties": { "id": null }, "geometry": { "type": "LineString", "coordinates": [ [ 37.662108824380887, 55.763539144089407 ], [ 37.662122693968612, 55.763522733519039 ] ] } },
{ "type": "Feature", "properties": { "id": null }, "geometry": { "type": "LineString", "coordinates": [ [ 37.662122673755455, 55.763543118675365 ], [ 37.662137075815593, 55.763526853386011 ] ] } },
{ "type": "Feature", "properties": { "id": null }, "geometry": { "type": "LineString", "coordinates": [ [ 37.662127893884701, 55.763544616782902 ], [ 37.66211825840147, 55.763555118548545 ] ] } },
{ "type": "Feature", "properties": { "id": null }, "geometry": { "type": "LineString", "coordinates": [ [ 37.662188738447703, 55.763562078361716 ], [ 37.662179965309868, 55.763572997197215 ] ] } },
{ "type": "Feature", "properties": { "id": null }, "geometry": { "type": "LineString", "coordinates": [ [ 37.662188738447703, 55.763562078361716 ], [ 37.662203022200288, 55.76354622820152 ] ] } },
{ "type": "Feature", "properties": { "id": null }, "geometry": { "type": "LineString", "coordinates": [ [ 37.662208875808844, 55.76356785751603 ], [ 37.662199080718693, 55.763578535595229 ] ] } },
{ "type": "Feature", "properties": { "id": null }, "geometry": { "type": "LineString", "coordinates": [ [ 37.662208875808844, 55.76356785751603 ], [ 37.662221547479234, 55.763551511248508 ] ] } },
{ "type": "Feature", "properties": { "id": null }, "geometry": { "type": "LineString", "coordinates": [ [ 37.66227218449027, 55.763586026263994 ], [ 37.662263295475626, 55.763597140844062 ] ] } },
{ "type": "Feature", "properties": { "id": null }, "geometry": { "type": "LineString", "coordinates": [ [ 37.66227218449027, 55.763586026263994 ], [ 37.662285331241428, 55.763570657109803 ] ] } },
{ "type": "Feature", "properties": { "id": null }, "geometry": { "type": "LineString", "coordinates": [ [ 37.662289118263594, 55.763590886031288 ], [ 37.662279212895491, 55.763601752670148 ] ] } },
{ "type": "Feature", "properties": { "id": null }, "geometry": { "type": "LineString", "coordinates": [ [ 37.662289118263594, 55.763590886031288 ], [ 37.662302059930497, 55.763575401925209 ] ] } },
{ "type": "Feature", "properties": { "id": null }, "geometry": { "type": "LineString", "coordinates": [ [ 37.662351022549799, 55.76360865173654 ], [ 37.662363751470579, 55.763594113861323 ] ] } },
{ "type": "Feature", "properties": { "id": null }, "geometry": { "type": "LineString", "coordinates": [ [ 37.662362338428792, 55.763611899243024 ], [ 37.662352732644436, 55.763623053885901 ] ] } },
{ "type": "Feature", "properties": { "id": null }, "geometry": { "type": "LineString", "coordinates": [ [ 37.66236825410364, 55.763613596962877 ], [ 37.662380808922507, 55.763598952391355 ] ] } },
{ "type": "Feature", "properties": { "id": null }, "geometry": { "type": "LineString", "coordinates": [ [ 37.66249066982968, 55.763649193697567 ], [ 37.66247970571203, 55.763659842348233 ] ] } },
{ "type": "Feature", "properties": { "id": null }, "geometry": { "type": "LineString", "coordinates": [ [ 37.662514344073045, 55.763656223207406 ], [ 37.662504655122184, 55.763667067574325 ] ] } },
{ "type": "Feature", "properties": { "id": null }, "geometry": { "type": "LineString", "coordinates": [ [ 37.662543633257151, 55.76366491994186 ], [ 37.662533452572099, 55.763675418071642 ] ] } },
{ "type": "Feature", "properties": { "id": null }, "geometry": { "type": "LineString", "coordinates": [ [ 37.662596107400219, 55.763680500904655 ], [ 37.662587238195179, 55.76369100647549 ] ] } },
{ "type": "Feature", "properties": { "id": null }, "geometry": { "type": "LineString", "coordinates": [ [ 37.662596107400219, 55.763680500904655 ], [ 37.662612872845742, 55.76366071070229 ] ] } },
{ "type": "Feature", "properties": { "id": null }, "geometry": { "type": "LineString", "coordinates": [ [ 37.662658620751927, 55.763699062774378 ], [ 37.662675918194694, 55.763678124664132 ] ] } },
{ "type": "Feature", "properties": { "id": null }, "geometry": { "type": "LineString", "coordinates": [ [ 37.662675757932263, 55.76370415125708 ], [ 37.662692369079231, 55.763685477232563 ], [ 37.662707830637387, 55.763689849198805 ] ] } },
{ "type": "Feature", "properties": { "id": null }, "geometry": { "type": "LineString", "coordinates": [ [ 37.662707830637387, 55.763689849198805 ], [ 37.662731538862147, 55.763696553022392 ] ] } },
{ "type": "Feature", "properties": { "id": null }, "geometry": { "type": "LineString", "coordinates": [ [ 37.662707830637387, 55.763689849198805 ], [ 37.662712445702454, 55.763684269313401 ] ] } },
{ "type": "Feature", "properties": { "id": null }, "geometry": { "type": "LineString", "coordinates": [ [ 37.662731538862147, 55.763696553022392 ], [ 37.662736179676067, 55.763691004774977 ] ] } },
{ "type": "Feature", "properties": { "id": null }, "geometry": { "type": "LineString", "coordinates": [ [ 37.662731538862147, 55.763696553022392 ], [ 37.662759079015409, 55.763704907352626 ] ] } },
{ "type": "Feature", "properties": { "id": null }, "geometry": { "type": "LineString", "coordinates": [ [ 37.662676086088517, 55.763726462603159 ], [ 37.662711414211543, 55.763736976137835 ] ] } },
{ "type": "Feature", "properties": { "id": null }, "geometry": { "type": "LineString", "coordinates": [ [ 37.662711414211543, 55.763736976137835 ], [ 37.662718721371235, 55.763739150724824 ] ] } },
{ "type": "Feature", "properties": { "id": null }, "geometry": { "type": "LineString", "coordinates": [ [ 37.662711414211543, 55.763736976137835 ], [ 37.662703393578809, 55.763744609254928 ] ] } },
{ "type": "Feature", "properties": { "id": null }, "geometry": { "type": "LineString", "coordinates": [ [ 37.662718721371235, 55.763739150724824 ], [ 37.662725426998485, 55.76373220656599 ] ] } },
{ "type": "Feature", "properties": { "id": null }, "geometry": { "type": "LineString", "coordinates": [ [ 37.662718721371235, 55.763739150724824 ], [ 37.662730339689183, 55.763743154279936 ] ] } },
{ "type": "Feature", "properties": { "id": null }, "geometry": { "type": "LineString", "coordinates": [ [ 37.662631076232422, 55.763774648435927 ], [ 37.662613408651275, 55.763769160387127 ] ] } },
{ "type": "Feature", "properties": { "id": null }, "geometry": { "type": "LineString", "coordinates": [ [ 37.662600929272067, 55.763806922620212 ], [ 37.662583972018517, 55.763801443816035 ] ] } },
{ "type": "Feature", "properties": { "id": null }, "geometry": { "type": "LineString", "coordinates": [ [ 37.662592862247301, 55.763815558868806 ], [ 37.662575822211522, 55.763810381777752 ] ] } },
{ "type": "Feature", "properties": { "id": null }, "geometry": { "type": "LineString", "coordinates": [ [ 37.662541515349254, 55.763870528896646 ], [ 37.662525376964403, 55.763865705476924 ] ] } },
{ "type": "Feature", "properties": { "id": null }, "geometry": { "type": "LineString", "coordinates": [ [ 37.662534077131347, 55.763878491968633 ], [ 37.662517876335009, 55.7638739314663 ] ] } },
{ "type": "Feature", "properties": { "id": null }, "geometry": { "type": "LineString", "coordinates": [ [ 37.662028333203153, 55.763516044193963 ], [ 37.661962150052759, 55.763497050511702 ] ] } },
{ "type": "Feature", "properties": { "id": null }, "geometry": { "type": "LineString", "coordinates": [ [ 37.662166765317195, 55.763436722772227 ], [ 37.662014674425599, 55.763392944434933 ], [ 37.662072452514252, 55.76332913634667 ] ] } },
{ "type": "Feature", "properties": { "id": null }, "geometry": { "type": "LineString", "coordinates": [ [ 37.662143633222321, 55.763250526732904 ], [ 37.662167468126306, 55.763224204219703 ] ] } },
{ "type": "Feature", "properties": { "id": null }, "geometry": { "type": "LineString", "coordinates": [ [ 37.662072452514252, 55.76332913634667 ], [ 37.662143633222321, 55.763250526732904 ] ] } },
{ "type": "Feature", "properties": { "id": null }, "geometry": { "type": "LineString", "coordinates": [ [ 37.662167468126306, 55.763224204219703 ], [ 37.662180426059848, 55.76321090923755 ] ] } },
{ "type": "Feature", "properties": { "id": null }, "geometry": { "type": "LineString", "coordinates": [ [ 37.662188397411384, 55.763229594332472 ], [ 37.662167468126306, 55.763224204219703 ] ] } },
{ "type": "Feature", "properties": { "id": null }, "geometry": { "type": "LineString", "coordinates": [ [ 37.662124494514011, 55.763245202468617 ], [ 37.662143633222321, 55.763250526732904 ] ] } },
{ "type": "Feature", "properties": { "id": null }, "geometry": { "type": "LineString", "coordinates": [ [ 37.662072452514252, 55.76332913634667 ], [ 37.662052803824352, 55.763323858046924 ] ] } }
]
}
