{
"type": "FeatureCollection",
"name": "rooms_2_floor_old",
"crs": { "type": "name", "properties": { "name": "urn:ogc:def:crs:OGC:1.3:CRS84" } },
"features": [
{ "type": "Feature", "properties": { "id": 0, "name": "60", "floor": 2, "building": "old building", "wall": null }, "geometry": { "type": "MultiPolygon", "coordinates": [ [ [ [ 37.662491074822356, 55.763903324859641 ], [ 37.662395921147478, 55.763875744966626 ], [ 37.662341240692996, 55.7639357133421 ], [ 37.66243639436788, 55.763963293192504 ], [ 37.662491074822356, 55.763903324859641 ] ] ] ] } },
{ "type": "Feature", "properties": { "id": 1, "name": "59", "floor": 2, "building": "old building", "wall": null }, "geometry": { "type": "MultiPolygon", "coordinates": [ [ [ [ 37.662436394367887, 55.763963293188809 ], [ 37.662341240692989, 55.763935713338412 ], [ 37.662281169915012, 55.764001593206572 ], [ 37.662376323589896, 55.764029173010186 ], [ 37.662436394367887, 55.763963293188809 ] ] ] ] } },
{ "type": "Feature", "properties": { "id": 2, "name": null, "floor": 2, "building": "old building", "wall": null }, "geometry": { "type": "MultiPolygon", "coordinates": [ [ [ [ 37.662376323589889, 55.764029173006499 ], [ 37.662281169915012, 55.764001593202892 ], [ 37.662256169185802, 55.764029011572035 ], [ 37.662351322860687, 55.764056591356152 ], [ 37.662376323589889, 55.764029173006499 ] ] ] ] } },
{ "type": "Feature", "properties": { "id": 3, "name": "58", "floor": 2, "building": "old building", "wall": null }, "geometry": { "type": "MultiPolygon", "coordinates": [ [ [ [ 37.662256169185802, 55.76402901156834 ], [ 37.662192311114602, 55.764099044844492 ], [ 37.662323298610524, 55.764137010774867 ], [ 37.662387156681724, 55.764066977567204 ], [ 37.662256169185802, 55.76402901156834 ] ] ] ] } },
{ "type": "Feature", "properties": { "id": 4, "name": "57", "floor": 2, "building": "old building", "wall": null }, "geometry": { "type": "MultiPolygon", "coordinates": [ [ [ [ 37.662323298610517, 55.764137010771186 ], [ 37.662462131595639, 55.76417725062845 ], [ 37.66252598966684, 55.764107217493361 ], [ 37.662387156681717, 55.764066977563523 ], [ 37.662323298610517, 55.764137010771186 ] ] ] ] } },
{ "type": "Feature", "properties": { "id": 5, "name": "55", "floor": 2, "building": "old building", "wall": null }, "geometry": { "type": "MultiPolygon", "coordinates": [ [ [ [ 37.662462131595639, 55.764177250624755 ], [ 37.662606243291137, 55.764219020438524 ], [ 37.662670101362338, 55.764148987378775 ], [ 37.66252598966684, 55.764107217489681 ], [ 37.662462131595639, 55.764177250624755 ] ] ] ] } },
{ "type": "Feature", "properties": { "id": 6, "name": "56а", "floor": 2, "building": "old building", "wall": null }, "geometry": { "type": "MultiPolygon", "coordinates": [ [ [ [ 37.66247879985103, 55.763966101543545 ], [ 37.662412014714711, 55.764039345029815 ], [ 37.662475246033225, 55.764057672282348 ], [ 37.662542031169551, 55.763984428830653 ], [ 37.66247879985103, 55.763966101543545 ] ] ] ] } },
{ "type": "Feature", "properties": { "id": 7, "name": "56", "floor": 2, "building": "old building", "wall": null }, "geometry": { "type": "MultiPolygon", "coordinates": [ [ [ [ 37.662542031169551, 55.763984428826966 ], [ 37.662475246033225, 55.764057672278661 ], [ 37.662695230780983, 55.764121433589587 ], [ 37.662762015917309, 55.764048190258187 ], [ 37.662542031169551, 55.763984428826966 ] ] ] ] } },
{ "type": "Feature", "properties": { "id": 8, "name": "кафедра оформления карт и атласов", "floor": 2, "building": "old building", "wall": null }, "geometry": { "type": "MultiPolygon", "coordinates": [ [ [ [ 37.662711893458876, 55.76410315485186 ], [ 37.662797059546953, 55.76412783973754 ], [ 37.66290439381828, 55.764010126089843 ], [ 37.662819227730211, 55.763985441129336 ], [ 37.662711893458876, 55.76410315485186 ] ] ] ] } },
{ "type": "Feature", "properties": { "id": 9, "name": "54", "floor": 2, "building": "old building", "wall": null }, "geometry": { "type": "MultiPolygon", "coordinates": [ [ [ [ 37.662797059546953, 55.76412783973386 ], [ 37.662996611318015, 55.76418567857008 ], [ 37.663103945589349, 55.764067965097745 ], [ 37.66290439381828, 55.764010126086156 ], [ 37.662797059546953, 55.76412783973386 ] ] ] ] } },
{ "type": "Feature", "properties": { "id": 10, "name": "53", "floor": 2, "building": "old building", "wall": null }, "geometry": { "type": "MultiPolygon", "coordinates": [ [ [ [ 37.662979945206423, 55.764203956261589 ], [ 37.66319605626731, 55.76426659457163 ], [ 37.663262841403629, 55.764193351514059 ], [ 37.663046730342742, 55.764130713085876 ], [ 37.662979945206423, 55.764203956261589 ] ] ] ] } },
{ "type": "Feature", "properties": { "id": 11, "name": null, "floor": 2, "building": "old building", "wall": null }, "geometry": { "type": "MultiPolygon", "coordinates": [ [ [ [ 37.66319605626731, 55.76426659456795 ], [ 37.663264585123549, 55.764286457166207 ], [ 37.663331370259876, 55.764213214146103 ], [ 37.663262841403629, 55.764193351510372 ], [ 37.66319605626731, 55.76426659456795 ] ] ] ] } },
{ "type": "Feature", "properties": { "id": 12, "name": "49", "floor": 2, "building": "old building", "wall": null }, "geometry": { "type": "MultiPolygon", "coordinates": [ [ [ [ 37.663264585123549, 55.76428645716252 ], [ 37.66339600718716, 55.76432454888068 ], [ 37.66349464009793, 55.764216378584948 ], [ 37.66336321803432, 55.764178286760661 ], [ 37.663264585123549, 55.76428645716252 ] ] ] ] } },
{ "type": "Feature", "properties": { "id": 13, "name": null, "floor": 2, "building": "old building", "wall": null }, "geometry": { "type": "MultiPolygon", "coordinates": [ [ [ [ 37.66339600718716, 55.764324548876992 ], [ 37.66330870925816, 55.764299246218762 ], [ 37.66329396129894, 55.764315420227845 ], [ 37.663381259227947, 55.764340722875531 ], [ 37.66339600718716, 55.764324548876992 ] ] ] ] } },
{ "type": "Feature", "properties": { "id": 14, "name": null, "floor": 2, "building": "old building", "wall": null }, "geometry": { "type": "MultiPolygon", "coordinates": [ [ [ [ 37.663381259227947, 55.764340722871843 ], [ 37.663258872352564, 55.764305249800927 ], [ 37.663184636545971, 55.764386663389629 ], [ 37.66330702342136, 55.764422136386152 ], [ 37.663381259227947, 55.764340722871843 ] ] ] ] } },
{ "type": "Feature", "properties": { "id": 15, "name": null, "floor": 2, "building": "old building", "wall": null }, "geometry": { "type": "MultiPolygon", "coordinates": [ [ [ [ 37.663258872352557, 55.764305249797246 ], [ 37.663181053282742, 55.764282694409367 ], [ 37.663106817476155, 55.76436410804537 ], [ 37.663184636545971, 55.764386663385942 ], [ 37.663258872352557, 55.764305249797246 ] ] ] ] } },
{ "type": "Feature", "properties": { "id": 16, "name": "46", "floor": 2, "building": "old building", "wall": null }, "geometry": { "type": "MultiPolygon", "coordinates": [ [ [ [ 37.663181053282742, 55.764282694405686 ], [ 37.663037217667821, 55.764241004486024 ], [ 37.66296298186122, 55.764322418209424 ], [ 37.663106817476148, 55.764364108041676 ], [ 37.663181053282742, 55.764282694405686 ] ] ] ] } },
{ "type": "Feature", "properties": { "id": 17, "name": "47", "floor": 2, "building": "old building", "wall": null }, "geometry": { "type": "MultiPolygon", "coordinates": [ [ [ [ 37.66296298186122, 55.764322418205751 ], [ 37.663037217667821, 55.764241004482336 ], [ 37.662965196588843, 55.764220129573019 ], [ 37.662890960782242, 55.764301543340196 ], [ 37.66296298186122, 55.764322418205751 ] ] ] ] } },
{ "type": "Feature", "properties": { "id": 18, "name": "буфет", "floor": 2, "building": "old building", "wall": null }, "geometry": { "type": "MultiPolygon", "coordinates": [ [ [ [ 37.662606243291137, 55.764219020434844 ], [ 37.662532471893307, 55.764299925107089 ], [ 37.662655162118703, 55.764335486012321 ], [ 37.662728933516526, 55.764254581414164 ], [ 37.662606243291137, 55.764219020434844 ] ] ] ] } },
{ "type": "Feature", "properties": { "id": 19, "name": null, "floor": 2, "building": "old building", "wall": null }, "geometry": { "type": "MultiPolygon", "coordinates": [ [ [ [ 37.662866642396118, 55.764328213568113 ], [ 37.662890960782242, 55.764301543336508 ], [ 37.662768166037523, 55.764265952681399 ], [ 37.662755186377524, 55.7642801876273 ], [ 37.662776986527938, 55.764286506151471 ], [ 37.662765659589098, 55.764298944953737 ], [ 37.662866642396118, 55.764328213568113 ] ] ] ] } },
{ "type": "Feature", "properties": { "id": 21, "name": "лестница", "floor": 2, "building": "old building", "wall": null }, "geometry": { "type": "MultiPolygon", "coordinates": [ [ [ [ 37.662532471893307, 55.764299925103401 ], [ 37.662489287763783, 55.764347284814306 ], [ 37.662611977989179, 55.764382845676153 ], [ 37.662655162118703, 55.764335486008633 ], [ 37.662532471893307, 55.764299925103401 ] ] ] ] } },
{ "type": "Feature", "properties": { "id": 22, "name": "42", "floor": 2, "building": "old building", "wall": null }, "geometry": { "type": "MultiPolygon", "coordinates": [ [ [ [ 37.662817590345448, 55.764382010035497 ], [ 37.662694952395476, 55.764346465317246 ], [ 37.662651392292851, 55.764394238631695 ], [ 37.662774030242822, 55.76442978330622 ], [ 37.662817590345448, 55.764382010035497 ] ] ] ] } },
{ "type": "Feature", "properties": { "id": 23, "name": null, "floor": 2, "building": "old building", "wall": null }, "geometry": { "type": "MultiPolygon", "coordinates": [ [ [ [ 37.662774030242829, 55.764429783302525 ], [ 37.662651392292844, 55.764394238628007 ], [ 37.662611534637357, 55.764437951336468 ], [ 37.662734172587328, 55.764473495970968 ], [ 37.662774030242829, 55.764429783302525 ] ] ] ] } },
{ "type": "Feature", "properties": { "id": 24, "name": "читальный зал", "floor": 2, "building": "old building", "wall": null }, "geometry": { "type": "MultiPolygon", "coordinates": [ [ [ [ 37.662734172587328, 55.76447349596728 ], [ 37.662449454375718, 55.764390971856969 ], [ 37.662249008407301, 55.764610796397484 ], [ 37.662533726618911, 55.764693320040536 ], [ 37.662734172587328, 55.76447349596728 ] ] ] ] } },
{ "type": "Feature", "properties": { "id": 25, "name": "40", "floor": 2, "building": "old building", "wall": null }, "geometry": { "type": "MultiPolygon", "coordinates": [ [ [ [ 37.662611977989179, 55.764382845672472 ], [ 37.662489287763783, 55.764347284810611 ], [ 37.6624494528496, 55.764390971410961 ], [ 37.662572143074996, 55.76442653223279 ], [ 37.662611977989179, 55.764382845672472 ] ] ] ] } },
{ "type": "Feature", "properties": { "id": 26, "name": "лестница", "floor": 2, "building": "old building", "wall": null }, "geometry": { "type": "MultiPolygon", "coordinates": [ [ [ [ 37.662249008407301, 55.764610796393811 ], [ 37.662187248513725, 55.764678526815423 ], [ 37.662307353647819, 55.764713338434802 ], [ 37.662369113541388, 55.764645608073906 ], [ 37.662249008407301, 55.764610796393811 ] ] ] ] } },
{ "type": "Feature", "properties": { "id": 27, "name": "музей \"Золотые комнаты\"", "floor": 2, "building": "old building", "wall": null }, "geometry": { "type": "MultiPolygon", "coordinates": [ [ [ [ 37.662307353647819, 55.764713338431115 ], [ 37.661837213316865, 55.764577072647839 ], [ 37.661726497803272, 55.764698492502646 ], [ 37.662196638134219, 55.764834757859774 ], [ 37.662307353647819, 55.764713338431115 ] ] ] ] } },
{ "type": "Feature", "properties": { "id": 28, "name": "38", "floor": 2, "building": "old building", "wall": null }, "geometry": { "type": "MultiPolygon", "coordinates": [ [ [ [ 37.662196638134219, 55.764834757856086 ], [ 37.662361252469964, 55.764882469182986 ], [ 37.662471967362499, 55.764761049723518 ], [ 37.662307353026755, 55.764713338247404 ], [ 37.662196638134219, 55.764834757856086 ] ] ] ] } },
{ "type": "Feature", "properties": { "id": 29, "name": "лестница", "floor": 2, "building": "old building", "wall": null }, "geometry": { "type": "MultiPolygon", "coordinates": [ [ [ [ 37.662533726618911, 55.764693320036848 ], [ 37.662486111150677, 55.764679519028462 ], [ 37.662424351704118, 55.764747248839967 ], [ 37.662471967172344, 55.76476104982428 ], [ 37.662533726618911, 55.764693320036848 ] ] ] ] } },
{ "type": "Feature", "properties": { "id": 30, "name": null, "floor": 2, "building": "old building", "wall": null }, "geometry": { "type": "MultiPolygon", "coordinates": [ [ [ [ 37.662307353647819, 55.764713338427434 ], [ 37.662424351255773, 55.76474724932428 ], [ 37.662486111149342, 55.764679519026238 ], [ 37.662369113541388, 55.764645608070232 ], [ 37.662307353647819, 55.764713338427434 ] ] ] ] } },
{ "type": "Feature", "properties": { "id": 31, "name": "мужской туалет", "floor": 2, "building": "old building", "wall": null }, "geometry": { "type": "MultiPolygon", "coordinates": [ [ [ [ 37.662694952395476, 55.764346465317246 ], [ 37.662817589560724, 55.764382009808052 ], [ 37.662866642396118, 55.764328213564426 ], [ 37.662765704453747, 55.764298957625108 ], [ 37.662777001518279, 55.764286489653337 ], [ 37.662755186377524, 55.7642801876273 ], [ 37.662694952395476, 55.764346465317246 ] ] ] ] } }
]
}
